         8022783 function calls (7762560 primitive calls) in 8.999 seconds

   Ordered by: cumulative time
   List reduced from 3172 to 18 due to restriction <'a2c_rework.py'>

   ncalls  tottime  percall  cumtime  percall filename:lineno(function)
        1    0.000    0.000    7.439    7.439 C:\Users\lgdem\gitws\ma_code\a2c_rework.py:372(run_final)
        1    0.013    0.013    4.131    4.131 C:\Users\lgdem\gitws\ma_code\a2c_rework.py:447(run_epoch)
       50    0.010    0.000    2.140    0.043 C:\Users\lgdem\gitws\ma_code\a2c_rework.py:746(learn)
      102    0.001    0.000    0.735    0.007 C:\Users\lgdem\gitws\ma_code\a2c_rework.py:52(call)
       50    0.004    0.000    0.733    0.015 C:\Users\lgdem\gitws\ma_code\a2c_rework.py:706(_critic_learn)
      103    0.002    0.000    0.641    0.006 C:\Users\lgdem\gitws\ma_code\a2c_rework.py:84(call)
       50    0.002    0.000    0.553    0.011 C:\Users\lgdem\gitws\ma_code\a2c_rework.py:728(_actor_learn)
       51    0.002    0.000    0.325    0.006 C:\Users\lgdem\gitws\ma_code\a2c_rework.py:299(get_list_of_actions)
       51    0.001    0.000    0.194    0.004 C:\Users\lgdem\gitws\ma_code\a2c_rework.py:250(choose_action)
       50    0.001    0.000    0.154    0.003 C:\Users\lgdem\gitws\ma_code\a2c_rework.py:345(timed_env_step)
     1000    0.001    0.000    0.138    0.000 C:\Users\lgdem\gitws\ma_code\a2c_rework.py:932(get_action_expanded_state)
       50    0.001    0.000    0.025    0.000 C:\Users\lgdem\gitws\ma_code\a2c_rework.py:278(actor_loss)
      151    0.001    0.000    0.013    0.000 C:\Users\lgdem\gitws\ma_code\a2c_rework.py:924(_prep_input)
        1    0.000    0.000    0.006    0.006 C:\Users\lgdem\gitws\ma_code\a2c_rework.py:357(get_data_set_fraction)
       50    0.000    0.000    0.006    0.000 C:\Users\lgdem\gitws\ma_code\a2c_rework.py:294(critic_loss)
       50    0.000    0.000    0.000    0.000 C:\Users\lgdem\gitws\ma_code\a2c_rework.py:516(<listcomp>)
        1    0.000    0.000    0.000    0.000 C:\Users\lgdem\gitws\ma_code\a2c_rework.py:405(<dictcomp>)
        1    0.000    0.000    0.000    0.000 C:\Users\lgdem\gitws\ma_code\a2c_rework.py:374(<listcomp>)


         8022783 function calls (7762560 primitive calls) in 8.999 seconds

   Ordered by: cumulative time
   List reduced from 3172 to 23 due to restriction <'env.py'>

   ncalls  tottime  percall  cumtime  percall filename:lineno(function)
        1    0.039    0.039    1.257    1.257 C:\Users\lgdem\gitws\ma_code\common\env.py:829(pick_data_by_day)
       50    0.001    0.000    0.097    0.002 C:\Users\lgdem\gitws\ma_code\common\env.py:165(step)
       50    0.001    0.000    0.046    0.001 C:\Users\lgdem\gitws\ma_code\common\env.py:292(_update_agents_location)
  504/483    0.001    0.000    0.045    0.000 C:\Users\lgdem\gitws\ma_code\common\env.py:322(_update_location_helper)
       50    0.000    0.000    0.041    0.001 C:\Users\lgdem\gitws\ma_code\common\env.py:511(_update_request_queue)
       50    0.001    0.000    0.041    0.001 C:\Users\lgdem\gitws\ma_code\common\env.py:719(_incoming_requests)
       32    0.001    0.000    0.039    0.001 C:\Users\lgdem\gitws\ma_code\common\env.py:892(_retrieve_travel_route)
        1    0.007    0.007    0.007    0.007 C:\Users\lgdem\gitws\ma_code\common\env.py:842(<listcomp>)
      504    0.001    0.000    0.005    0.000 C:\Users\lgdem\gitws\ma_code\common\env.py:908(_calculate_gas_cost)
       51    0.002    0.000    0.004    0.000 C:\Users\lgdem\gitws\ma_code\common\env.py:921(transform_state_to_input)
       50    0.001    0.000    0.002    0.000 C:\Users\lgdem\gitws\ma_code\common\env.py:393(_update_action_queue)
       50    0.001    0.000    0.001    0.000 C:\Users\lgdem\gitws\ma_code\common\env.py:669(_reward_function)
       50    0.001    0.000    0.001    0.000 C:\Users\lgdem\gitws\ma_code\common\env.py:541(_clean_actions)
        1    0.000    0.000    0.001    0.001 C:\Users\lgdem\gitws\ma_code\common\env.py:251(reset)
        1    0.000    0.000    0.001    0.001 C:\Users\lgdem\gitws\ma_code\common\env.py:703(_initialize_agent_locations)
      366    0.001    0.000    0.001    0.000 C:\Users\lgdem\gitws\ma_code\common\env.py:492(_new_a_on_empty_aq)
     1632    0.000    0.000    0.000    0.000 C:\Users\lgdem\gitws\ma_code\common\env.py:146(no_op)
       50    0.000    0.000    0.000    0.000 C:\Users\lgdem\gitws\ma_code\common\env.py:690(<listcomp>)
       51    0.000    0.000    0.000    0.000 C:\Users\lgdem\gitws\ma_code\common\env.py:695(_build_state)
        1    0.000    0.000    0.000    0.000 C:\Users\lgdem\gitws\ma_code\common\env.py:283(_initialize_stats_dict)
        1    0.000    0.000    0.000    0.000 C:\Users\lgdem\gitws\ma_code\common\env.py:273(_initialize_action_queue)
        1    0.000    0.000    0.000    0.000 C:\Users\lgdem\gitws\ma_code\common\env.py:276(<listcomp>)
        1    0.000    0.000    0.000    0.000 C:\Users\lgdem\gitws\ma_code\common\env.py:278(_initialize_request_queue)


