Running the iac with 2 agents in 63 zones for 1000 steps in day 2018-02-07
run_iac(): chosen actions:  [98, 7]
env.step(): Current State:
    - Current time: 10, 0.01% finished
    - New request queue:  [[15, 38, 247.0, 13.708, 176], [48, 57, 48.0, 8.0, 175], [59, 29, 142.0, 9.192, 174], [45, 33, 112.0, 8.0, 171]]
    - New locations:  [[43, 43, 0], [12, 12, 0]]
    - New action queue:  [[], [[12, 7, 389.0, 0, 0]]]
    - Raw rewards:  [0, 0]
    - Rewards:  [0. 0.]
run_iac(): chosen actions:  [78, 24]
env.step(): Current State:
    - Current time: 20, 0.02% finished
    - New request queue:  [[15, 38, 247.0, 13.708, 166], [48, 57, 48.0, 8.0, 165], [59, 29, 142.0, 9.192, 164], [45, 33, 112.0, 8.0, 161], [62, 33, 42.0, 8.0, 179], [2, 0, 52.0, 8.0, 175], [44, 1, 48.0, 8.0, 174], [36, 14, 385.0, 19.483, 173], [9, 8, 46.0, 8.0, 172], [2, 31, 220.0, 12.6, 171]]
    - New locations:  [[43, 43, 0], [12, 12, 0]]
    - New action queue:  [[], [[12, 7, 389.0, 0, 0], [7, 24, 91.0, 0, 0]]]
    - Raw rewards:  [0, 0]
    - Rewards:  [0. 0.]
run_iac(): chosen actions:  [3, 24]
env.step(): Current State:
    - Current time: 30, 0.03% finished
    - New request queue:  [[15, 38, 247.0, 13.708, 156], [48, 57, 48.0, 8.0, 155], [59, 29, 142.0, 9.192, 154], [45, 33, 112.0, 8.0, 151], [62, 33, 42.0, 8.0, 169], [2, 0, 52.0, 8.0, 165], [44, 1, 48.0, 8.0, 164], [36, 14, 385.0, 19.483, 163], [9, 8, 46.0, 8.0, 162], [2, 31, 220.0, 12.6, 161], [39, 49, 100.0, 8.0, 179], [39, 9, 73.0, 8.0, 178], [29, 35, 56.0, 8.0, 175], [1, 42, 41.0, 8.0, 175], [22, 23, 32.0, 8.0, 175], [55, 53, 53.0, 8.0, 175], [47, 49, 87.0, 8.0, 172], [45, 50, 51.0, 8.0, 172]]
    - New locations:  [[43, 43, 0], [12, 12, 0]]
    - New action queue:  [[[43, 3, 63.0, 0, 0]], [[12, 7, 389.0, 0, 0], [7, 24, 91.0, 0, 0]]]
    - Raw rewards:  [0, 0]
    - Rewards:  [0. 0.]
run_iac(): chosen actions:  [78, 110]
env.step(): Current State:
    - Current time: 40, 0.05% finished
    - New request queue:  [[15, 38, 247.0, 13.708, 146], [48, 57, 48.0, 8.0, 145], [59, 29, 142.0, 9.192, 144], [45, 33, 112.0, 8.0, 141], [62, 33, 42.0, 8.0, 159], [2, 0, 52.0, 8.0, 155], [44, 1, 48.0, 8.0, 154], [36, 14, 385.0, 19.483, 153], [9, 8, 46.0, 8.0, 152], [2, 31, 220.0, 12.6, 151], [39, 49, 100.0, 8.0, 169], [39, 9, 73.0, 8.0, 168], [29, 35, 56.0, 8.0, 165], [1, 42, 41.0, 8.0, 165], [22, 23, 32.0, 8.0, 165], [55, 53, 53.0, 8.0, 165], [47, 49, 87.0, 8.0, 162], [45, 50, 51.0, 8.0, 162], [52, 35, 141.0, 8.767, 174], [9, 46, 66.0, 8.0, 173], [29, 34, 88.0, 8.0, 173], [44, 30, 149.0, 8.706, 172], [39, 59, 204.0, 11.461, 172]]
    - New locations:  [[43, 43, 0], [12, 12, 0]]
    - New action queue:  [[[43, 3, 63.0, 0, 0]], [[12, 7, 389.0, 0, 0], [7, 24, 91.0, 0, 0]]]
    - Raw rewards:  [0, 0]
    - Rewards:  [0. 0.]
run_iac(): chosen actions:  [101, 110]
env.step(): Current State:
    - Current time: 50, 0.06% finished
    - New request queue:  [[15, 38, 247.0, 13.708, 136], [48, 57, 48.0, 8.0, 135], [59, 29, 142.0, 9.192, 134], [45, 33, 112.0, 8.0, 131], [62, 33, 42.0, 8.0, 149], [2, 0, 52.0, 8.0, 145], [44, 1, 48.0, 8.0, 144], [36, 14, 385.0, 19.483, 143], [9, 8, 46.0, 8.0, 142], [2, 31, 220.0, 12.6, 141], [39, 49, 100.0, 8.0, 159], [39, 9, 73.0, 8.0, 158], [29, 35, 56.0, 8.0, 155], [1, 42, 41.0, 8.0, 155], [22, 23, 32.0, 8.0, 155], [55, 53, 53.0, 8.0, 155], [47, 49, 87.0, 8.0, 152], [45, 50, 51.0, 8.0, 152], [52, 35, 141.0, 8.767, 164], [9, 46, 66.0, 8.0, 163], [29, 34, 88.0, 8.0, 163], [44, 30, 149.0, 8.706, 162], [39, 59, 204.0, 11.461, 162], [29, 38, 28.0, 8.0, 177], [24, 4, 46.0, 8.0, 173], [32, 35, 77.0, 8.0, 173]]
    - New locations:  [[43, 43, 0], [12, 12, 0]]
    - New action queue:  [[[43, 3, 63.0, 0, 0]], [[12, 7, 389.0, 0, 0], [7, 24, 91.0, 0, 0]]]
    - Raw rewards:  [0, 0]
    - Rewards:  [0. 0.]
run_iac(): chosen actions:  [53, 110]
env.step(): Current State:
    - Current time: 60, 0.07% finished
    - New request queue:  [[15, 38, 247.0, 13.708, 126], [48, 57, 48.0, 8.0, 125], [59, 29, 142.0, 9.192, 124], [45, 33, 112.0, 8.0, 121], [62, 33, 42.0, 8.0, 139], [2, 0, 52.0, 8.0, 135], [44, 1, 48.0, 8.0, 134], [36, 14, 385.0, 19.483, 133], [9, 8, 46.0, 8.0, 132], [2, 31, 220.0, 12.6, 131], [39, 49, 100.0, 8.0, 149], [39, 9, 73.0, 8.0, 148], [29, 35, 56.0, 8.0, 145], [1, 42, 41.0, 8.0, 145], [22, 23, 32.0, 8.0, 145], [55, 53, 53.0, 8.0, 145], [47, 49, 87.0, 8.0, 142], [45, 50, 51.0, 8.0, 142], [52, 35, 141.0, 8.767, 154], [9, 46, 66.0, 8.0, 153], [29, 34, 88.0, 8.0, 153], [44, 30, 149.0, 8.706, 152], [39, 59, 204.0, 11.461, 152], [29, 38, 28.0, 8.0, 167], [24, 4, 46.0, 8.0, 163], [32, 35, 77.0, 8.0, 163], [34, 49, 107.0, 8.0, 178], [9, 25, 44.0, 8.0, 171], [9, 46, 66.0, 8.0, 171], [59, 31, 103.0, 8.0, 171]]
    - New locations:  [[43, 43, 0], [12, 12, 0]]
    - New action queue:  [[[43, 3, 63.0, 0, 0], [3, 53, 440.0, 0, 0]], [[12, 7, 389.0, 0, 0], [7, 24, 91.0, 0, 0]]]
    - Raw rewards:  [0, 0]
    - Rewards:  [0. 0.]
run_iac(): chosen actions:  [80, 105]
Running the iac with 2 agents in 63 zones for 1000 steps in day 2018-02-07
run_iac(): chosen actions:  [98, 7]
env.step(): Current State:
    - Current time: 10, 0.01% finished
    - New request queue:  [[15, 38, 247.0, 13.708, 176], [48, 57, 48.0, 8.0, 175], [59, 29, 142.0, 9.192, 174], [45, 33, 112.0, 8.0, 171]]
    - New locations:  [[43, 43, 0], [12, 12, 0]]
    - New action queue:  [[], [[12, 7, 389.0, 0, 0]]]
    - Raw rewards:  [0, 0]
    - Rewards:  [0. 0.]
run_iac(): chosen actions:  [78, 24]
env.step(): Current State:
    - Current time: 20, 0.02% finished
    - New request queue:  [[15, 38, 247.0, 13.708, 166], [48, 57, 48.0, 8.0, 165], [59, 29, 142.0, 9.192, 164], [45, 33, 112.0, 8.0, 161], [62, 33, 42.0, 8.0, 179], [2, 0, 52.0, 8.0, 175], [44, 1, 48.0, 8.0, 174], [36, 14, 385.0, 19.483, 173], [9, 8, 46.0, 8.0, 172], [2, 31, 220.0, 12.6, 171]]
    - New locations:  [[43, 43, 0], [12, 12, 0]]
    - New action queue:  [[], [[12, 7, 389.0, 0, 0], [7, 24, 91.0, 0, 0]]]
    - Raw rewards:  [0, 0]
    - Rewards:  [0. 0.]
run_iac(): chosen actions:  [3, 24]
env.step(): Current State:
    - Current time: 30, 0.03% finished
    - New request queue:  [[15, 38, 247.0, 13.708, 156], [48, 57, 48.0, 8.0, 155], [59, 29, 142.0, 9.192, 154], [45, 33, 112.0, 8.0, 151], [62, 33, 42.0, 8.0, 169], [2, 0, 52.0, 8.0, 165], [44, 1, 48.0, 8.0, 164], [36, 14, 385.0, 19.483, 163], [9, 8, 46.0, 8.0, 162], [2, 31, 220.0, 12.6, 161], [39, 49, 100.0, 8.0, 179], [39, 9, 73.0, 8.0, 178], [29, 35, 56.0, 8.0, 175], [1, 42, 41.0, 8.0, 175], [22, 23, 32.0, 8.0, 175], [55, 53, 53.0, 8.0, 175], [47, 49, 87.0, 8.0, 172], [45, 50, 51.0, 8.0, 172]]
    - New locations:  [[43, 43, 0], [12, 12, 0]]
    - New action queue:  [[[43, 3, 63.0, 0, 0]], [[12, 7, 389.0, 0, 0], [7, 24, 91.0, 0, 0]]]
    - Raw rewards:  [0, 0]
    - Rewards:  [0. 0.]
run_iac(): chosen actions:  [78, 110]
env.step(): Current State:
    - Current time: 40, 0.05% finished
    - New request queue:  [[15, 38, 247.0, 13.708, 146], [48, 57, 48.0, 8.0, 145], [59, 29, 142.0, 9.192, 144], [45, 33, 112.0, 8.0, 141], [62, 33, 42.0, 8.0, 159], [2, 0, 52.0, 8.0, 155], [44, 1, 48.0, 8.0, 154], [36, 14, 385.0, 19.483, 153], [9, 8, 46.0, 8.0, 152], [2, 31, 220.0, 12.6, 151], [39, 49, 100.0, 8.0, 169], [39, 9, 73.0, 8.0, 168], [29, 35, 56.0, 8.0, 165], [1, 42, 41.0, 8.0, 165], [22, 23, 32.0, 8.0, 165], [55, 53, 53.0, 8.0, 165], [47, 49, 87.0, 8.0, 162], [45, 50, 51.0, 8.0, 162], [52, 35, 141.0, 8.767, 174], [9, 46, 66.0, 8.0, 173], [29, 34, 88.0, 8.0, 173], [44, 30, 149.0, 8.706, 172], [39, 59, 204.0, 11.461, 172]]
    - New locations:  [[43, 43, 0], [12, 12, 0]]
    - New action queue:  [[[43, 3, 63.0, 0, 0]], [[12, 7, 389.0, 0, 0], [7, 24, 91.0, 0, 0]]]
    - Raw rewards:  [0, 0]
    - Rewards:  [0. 0.]
run_iac(): chosen actions:  [101, 110]
env.step(): Current State:
    - Current time: 50, 0.06% finished
    - New request queue:  [[15, 38, 247.0, 13.708, 136], [48, 57, 48.0, 8.0, 135], [59, 29, 142.0, 9.192, 134], [45, 33, 112.0, 8.0, 131], [62, 33, 42.0, 8.0, 149], [2, 0, 52.0, 8.0, 145], [44, 1, 48.0, 8.0, 144], [36, 14, 385.0, 19.483, 143], [9, 8, 46.0, 8.0, 142], [2, 31, 220.0, 12.6, 141], [39, 49, 100.0, 8.0, 159], [39, 9, 73.0, 8.0, 158], [29, 35, 56.0, 8.0, 155], [1, 42, 41.0, 8.0, 155], [22, 23, 32.0, 8.0, 155], [55, 53, 53.0, 8.0, 155], [47, 49, 87.0, 8.0, 152], [45, 50, 51.0, 8.0, 152], [52, 35, 141.0, 8.767, 164], [9, 46, 66.0, 8.0, 163], [29, 34, 88.0, 8.0, 163], [44, 30, 149.0, 8.706, 162], [39, 59, 204.0, 11.461, 162], [29, 38, 28.0, 8.0, 177], [24, 4, 46.0, 8.0, 173], [32, 35, 77.0, 8.0, 173]]
    - New locations:  [[43, 43, 0], [12, 12, 0]]
    - New action queue:  [[[43, 3, 63.0, 0, 0]], [[12, 7, 389.0, 0, 0], [7, 24, 91.0, 0, 0]]]
    - Raw rewards:  [0, 0]
    - Rewards:  [0. 0.]
run_iac(): chosen actions:  [53, 110]
env.step(): Current State:
    - Current time: 60, 0.07% finished
    - New request queue:  [[15, 38, 247.0, 13.708, 126], [48, 57, 48.0, 8.0, 125], [59, 29, 142.0, 9.192, 124], [45, 33, 112.0, 8.0, 121], [62, 33, 42.0, 8.0, 139], [2, 0, 52.0, 8.0, 135], [44, 1, 48.0, 8.0, 134], [36, 14, 385.0, 19.483, 133], [9, 8, 46.0, 8.0, 132], [2, 31, 220.0, 12.6, 131], [39, 49, 100.0, 8.0, 149], [39, 9, 73.0, 8.0, 148], [29, 35, 56.0, 8.0, 145], [1, 42, 41.0, 8.0, 145], [22, 23, 32.0, 8.0, 145], [55, 53, 53.0, 8.0, 145], [47, 49, 87.0, 8.0, 142], [45, 50, 51.0, 8.0, 142], [52, 35, 141.0, 8.767, 154], [9, 46, 66.0, 8.0, 153], [29, 34, 88.0, 8.0, 153], [44, 30, 149.0, 8.706, 152], [39, 59, 204.0, 11.461, 152], [29, 38, 28.0, 8.0, 167], [24, 4, 46.0, 8.0, 163], [32, 35, 77.0, 8.0, 163], [34, 49, 107.0, 8.0, 178], [9, 25, 44.0, 8.0, 171], [9, 46, 66.0, 8.0, 171], [59, 31, 103.0, 8.0, 171]]
    - New locations:  [[43, 43, 0], [12, 12, 0]]
    - New action queue:  [[[43, 3, 63.0, 0, 0], [3, 53, 440.0, 0, 0]], [[12, 7, 389.0, 0, 0], [7, 24, 91.0, 0, 0]]]
    - Raw rewards:  [0, 0]
    - Rewards:  [0. 0.]
run_iac(): chosen actions:  [80, 105]
