,0,1,2,3
total_length,187203269,157382220,147915831,147504131
only_manhattan,14851353,4358698,3758167,3750119
wo_in-zone,302850955,81652032,79286024,79138401
cleaned,234629119,74024891,71588309,71475248
