,0
251548,0
341605,1
379117,2
202904,3
445310,4
466016,5
322507,6
367343,7
391230,8
404531,9
426973,10
494499,11
510426,12
403901,13
347038,14
421020,15
447326,16
477599,17
509904,18
465090,19
306614,20
369396,21
421707,22
451168,23
489261,24
540999,25
502660,26
325180,27
373639,28
437571,29
456879,30
465043,31
557683,32
522212,33
372733,34
405765,35
440597,36
495530,37
496467,38
541097,39
546137,40
352829,41
408795,42
457529,43
469897,44
459032,45
502507,46
495887,47
358496,48
330475,49
378570,50
418352,51
489604,52
528563,53
509890,54
339304,55
387643,56
421726,57
436278,58
480787,59
564825,60
507119,61
351017,62
404537,63
442178,64
379152,65
488027,66
529821,67
510239,68
340309,69
407074,70
453134,71
474087,72
491771,73
522620,74
498093,75
325775,76
374970,77
444631,78
306928,79
454508,80
492547,81
473477,82
335383,83
389717,84
418924,85
445223,86
470470,87
467744,88
426543,89
312452,90
381739,91
447149,92
450073,93
482263,94
522239,95
500900,96
333054,97
397688,98
437163,99
449090,100
468210,101
510346,102
525097,103
387944,104
420145,105
449070,106
454706,107
511029,108
526807,109
491914,110
329483,111
391656,112
437950,113
482242,114
476702,115
517113,116
508504,117
349831,118
421844,119
428549,120
452065,121
490952,122
505286,123
515168,124
329216,125
396707,126
432831,127
444272,128
482201,129
489432,130
494480,131
369472,132
417427,133
461463,134
483787,135
485827,136
503231,137
510629,138
335221,139
387855,140
443655,141
426285,142
438051,143
417482,144
370928,145
313722,146
256166,147
392906,148
429159,149
479794,150
508697,151
487838,152
338374,153
380760,154
394453,155
419662,156
435824,157
457026,158
429390,159
301309,160
390315,161
424340,162
457963,163
465225,164
439032,165
417897,166
307806,167
405989,168
440827,169
451942,170
465645,171
488193,172
444439,173
303621,174
372929,175
412518,176
434605,177
472536,178
444883,179
426645,180
332925,181
377274,182
413352,183
264798,184
340168,185
383431,186
341892,187
273335,188
364080,189
422306,190
436220,191
444438,192
464166,193
426835,194
307675,195
398288,196
454648,197
437331,198
428060,199
456220,200
445056,201
317513,202
391223,203
428287,204
455219,205
456808,206
477477,207
423103,208
311266,209
369881,210
404424,211
440562,212
450361,213
450253,214
411263,215
310848,216
382161,217
437182,218
451437,219
447525,220
451688,221
389205,222
288845,223
381713,224
404193,225
417335,226
432269,227
457339,228
389100,229
282204,230
339712,231
366946,232
394643,233
406525,234
417677,235
378736,236
286702,237
348525,238
407455,239
420621,240
411521,241
401238,242
351997,243
304985,244
270836,245
402221,246
451036,247
495149,248
503268,249
473247,250
365324,251
413752,252
411893,253
464972,254
468880,255
502219,256
477069,257
328902,258
403953,259
435381,260
402085,261
461562,262
494742,263
466786,264
311639,265
346432,266
410127,267
402413,268
422015,269
484820,270
480556,271
326554,272
376995,273
427324,274
437166,275
467300,276
478995,277
474157,278
329531,279
345777,280
417267,281
440225,282
483983,283
501660,284
498578,285
331340,286
392196,287
433585,288
450212,289
485262,290
496575,291
484220,292
357192,293
402988,294
425030,295
446901,296
482210,297
535045,298
580307,299
344812,300
398020,301
428396,302
441087,303
460606,304
522524,305
522619,306
319911,307
426485,308
448317,309
440306,310
470519,311
518708,312
546321,313
346669,314
396021,315
452023,316
470228,317
380099,318
510381,319
518816,320
353087,321
395075,322
423587,323
409508,324
272866,325
355427,326
409319,327
286181,328
407086,329
431687,330
446629,331
477798,332
531745,333
548821,334
372235,335
403824,336
456996,337
475553,338
497219,339
547779,340
561459,341
368316,342
419060,343
457869,344
479947,345
513250,346
547245,347
542640,348
421288,349
421562,350
468384,351
463630,352
488217,353
470719,354
390846,355
280728,356
293760,357
184912,358
280012,359
326529,360
380369,361
360451,362
297858,363
459778,364
224747,365
303155,366
342140,367
409833,368
433348,369
294957,370
360643,371
372759,372
397405,373
448271,374
525724,375
500057,376
338007,377
404094,378
433542,379
430411,380
458535,381
470856,382
451303,383
356304,384
357277,385
428590,386
423920,387
495256,388
538003,389
529170,390
322593,391
399281,392
449432,393
483284,394
519236,395
584730,396
514560,397
343433,398
373234,399
407112,400
464757,401
461972,402
541228,403
548326,404
337878,405
398770,406
446326,407
452391,408
467276,409
461128,410
460196,411
350769,412
314254,413
393436,414
433922,415
433412,416
502748,417
497106,418
320868,419
396567,420
442298,421
457390,422
477486,423
521688,424
492927,425
345779,426
361119,427
452815,428
488210,429
504728,430
533355,431
509404,432
367821,433
390839,434
445332,435
451410,436
468083,437
508235,438
493281,439
318475,440
360273,441
390004,442
408174,443
487881,444
505420,445
479000,446
299854,447
349811,448
396140,449
416332,450
442160,451
480416,452
470484,453
332213,454
381581,455
424041,456
430012,457
457707,458
541603,459
488573,460
316731,461
369967,462
426893,463
422647,464
455303,465
512687,466
492154,467
324940,468
410729,469
411507,470
432874,471
448531,472
435297,473
391752,474
282635,475
361875,476
383250,477
391342,478
449247,479
497544,480
468856,481
322283,482
374887,483
418110,484
443963,485
472209,486
507504,487
506885,488
372378,489
372749,490
416304,491
407548,492
448824,493
481813,494
451173,495
381988,496
432312,497
452943,498
425752,499
435132,500
472410,501
454691,502
329108,503
390442,504
419939,505
423532,506
433032,507
392079,508
328067,509
286317,510
230340,511
376643,512
424250,513
456625,514
460430,515
445929,516
317751,517
362109,518
382583,519
420365,520
441357,521
452852,522
414925,523
279154,524
391760,525
396226,526
410922,527
468168,528
432051,529
397731,530
276598,531
350579,532
439609,533
419795,534
444724,535
450706,536
402150,537
300970,538
358947,539
413149,540
414958,541
434359,542
450846,543
416710,544
252160,545
317994,546
339834,547
319660,548
222113,549
270053,550
293096,551
241484,552
315189,553
364505,554
394087,555
445885,556
412909,557
409164,558
279397,559
335175,560
390896,561
456292,562
424539,563
465593,564
420713,565
317357,566
394735,567
393808,568
399973,569
415963,570
416598,571
386594,572
289278,573
346689,574
395292,575
407730,576
404225,577
413216,578
375003,579
273685,580
326246,581
374780,582
410075,583
402489,584
397157,585
346980,586
249134,587
321103,588
361011,589
372745,590
382347,591
389869,592
368665,593
288465,594
316029,595
351239,596
374650,597
402493,598
380146,599
351696,600
261747,601
292816,602
324632,603
353306,604
348195,605
356778,606
319344,607
272558,608
232675,609
332357,610
385004,611
422018,612
481509,613
433967,614
300077,615
365128,616
403193,617
414052,618
468570,619
461734,620
446133,621
307149,622
364249,623
387539,624
399469,625
421598,626
449394,627
444238,628
301993,629
320804,630
347097,631
359136,632
397648,633
435504,634
444474,635
295464,636
298551,637
345706,638
412477,639
462201,640
469943,641
452446,642
292722,643
371732,644
373130,645
400549,646
428105,647
460168,648
444341,649
309380,650
303926,651
385400,652
448067,653
444494,654
473388,655
457025,656
342149,657
349460,658
418216,659
403028,660
428897,661
474007,662
479666,663
330356,664
353470,665
412466,666
411054,667
459187,668
493572,669
488494,670
299574,671
361905,672
385925,673
410478,674
455595,675
516617,676
492090,677
324232,678
318918,679
432378,680
446287,681
460342,682
493185,683
519586,684
327534,685
398237,686
400270,687
425072,688
447435,689
483018,690
486591,691
339260,692
362296,693
371423,694
357765,695
232554,696
305865,697
352799,698
308969,699
381708,700
422747,701
427085,702
464789,703
505576,704
524252,705
334252,706
416178,707
429266,708
464983,709
481036,710
536249,711
527432,712
344023,713
405351,714
462423,715
446362,716
493894,717
478365,718
405180,719
276104,720
288841,721
273270,722
159948,723
237865,724
289779,725
301765,726
270758,727
320037,728
297591,729
