LocationID,center,Borough,Zone,service_zone
4, POINT (-73.97603 40.723689),Manhattan,Alphabet City,Yellow Zone
12, POINT (-74.0159238 40.7048342),Manhattan,Battery Park,Yellow Zone
13, POINT (-74.0158085 40.7115654),Manhattan,Battery Park City,Yellow Zone
24, POINT (-73.9647516 40.8017475),Manhattan,Bloomingdale,Yellow Zone
41, POINT (-73.9516525 40.8045666),Manhattan,Central Harlem,Boro Zone
42, POINT (-73.9414661 40.8185035),Manhattan,Central Harlem North,Boro Zone
43, POINT (-73.9647236 40.7836031),Manhattan,Central Park,Yellow Zone
45, POINT (-73.9979893 40.7127279),Manhattan,Chinatown,Yellow Zone
48, POINT (-73.9898591 40.7622326),Manhattan,Clinton East,Yellow Zone
50, POINT (-73.9946355 40.7658858),Manhattan,Clinton West,Yellow Zone
68, POINT (-73.9999781 40.7484089),Manhattan,East Chelsea,Yellow Zone
74, POINT (-73.9376885 40.8011376),Manhattan,East Harlem North,Boro Zone
75, POINT (-73.9456332 40.7902593),Manhattan,East Harlem South,Boro Zone
79, POINT (-73.985307 40.727599),Manhattan,East Village,Yellow Zone
87, POINT (-74.0067906 40.7067331),Manhattan,Financial District North,Yellow Zone
88, POINT (-74.0115825 40.7035187),Manhattan,Financial District South,Yellow Zone
90, POINT (-73.997007 40.742228),Manhattan,Flatiron,Yellow Zone
100, POINT (-73.988787 40.753517),Manhattan,Garment District,Yellow Zone
107, POINT (-73.9845088 40.7369623),Manhattan,Gramercy,Yellow Zone
113, POINT (-73.995489 40.733437),Manhattan,Greenwich Village North,Yellow Zone
114, POINT (-73.9970942 40.7289446),Manhattan,Greenwich Village South,Yellow Zone
116, POINT (-73.9495134 40.8277303),Manhattan,Hamilton Heights,Boro Zone
120, POINT (-73.9313827 40.8474237),Manhattan,Highbridge Park,Boro Zone
125, POINT (-74.0074233 40.726601),Manhattan,Hudson Sq,Yellow Zone
127, POINT (-73.919996 40.865797),Manhattan,Inwood,Boro Zone
128, POINT (-73.922145 40.86915),Manhattan,Inwood Hill Park,Boro Zone
137, POINT (-73.9762474 40.7400362),Manhattan,Kips Bay,Yellow Zone
140, POINT (-73.9547034 40.765554),Manhattan,Lenox Hill East,Yellow Zone
141, POINT (-73.959779 40.7668653),Manhattan,Lenox Hill West,Yellow Zone
142, POINT (-73.9815954 40.7736093),Manhattan,Lincoln Square East,Yellow Zone
143, POINT (-73.9872606 40.7760287),Manhattan,Lincoln Square West,Yellow Zone
144, POINT (-73.9965747 40.7211736),Manhattan,Little Italy/NoLiTa,Yellow Zone
148, POINT (-73.9904014 40.7193052),Manhattan,Lower East Side,Yellow Zone
151, POINT (-73.9675923 40.7978876),Manhattan,Manhattan Valley,Yellow Zone
152, POINT (-73.9531759 40.8175891),Manhattan,Manhattanville,Boro Zone
158, POINT (-74.0084332 40.7347802),Manhattan,Meatpacking/West Village West,Yellow Zone
161, POINT (-73.977655 40.757912),Manhattan,Midtown Center,Yellow Zone
162, POINT (-73.972362 40.756498),Manhattan,Midtown East,Yellow Zone
163, POINT (-73.977196 40.764324),Manhattan,Midtown North,Yellow Zone
164, POINT (-73.9845788 40.748431),Manhattan,Midtown South,Yellow Zone
166, POINT (-73.961977 40.8105047),Manhattan,Morningside Heights,Boro Zone
170, POINT (-73.978788 40.747684),Manhattan,Murray Hill,Yellow Zone
186, POINT (-73.992463 40.748469),Manhattan,Penn Station/Madison Sq West,Yellow Zone
209, POINT (-74.004827 40.70966),Manhattan,Seaport,Yellow Zone
211, POINT (-74.001127 40.724166),Manhattan,SoHo,Yellow Zone
224, POINT (-73.9807314 40.7338367),Manhattan,Stuy Town/Peter Cooper Village,Yellow Zone
229, POINT (-73.9643194 40.756377),Manhattan,Sutton Place/Turtle Bay North,Yellow Zone
230, POINT (-73.984174 40.759841),Manhattan,Times Sq/Theatre District,Yellow Zone
231, POINT (-74.0075333 40.7176679),Manhattan,TriBeCa/Civic Center,Yellow Zone
232, POINT (-73.9833174 40.7149508),Manhattan,Two Bridges/Seward Park,Yellow Zone
233, POINT (-73.971713 40.750494),Manhattan,UN/Turtle Bay South,Yellow Zone
234, POINT (-73.9905314 40.7402492),Manhattan,Union Sq,Yellow Zone
236, POINT (-73.957306 40.7802344),Manhattan,Upper East Side North,Yellow Zone
237, POINT (-73.9658054 40.7685964),Manhattan,Upper East Side South,Yellow Zone
238, POINT (-73.973692 40.7921142),Manhattan,Upper West Side North,Yellow Zone
239, POINT (-73.9794053 40.7844943),Manhattan,Upper West Side South,Yellow Zone
243, POINT (-73.932631 40.856716),Manhattan,Washington Heights North,Boro Zone
244, POINT (-73.942279 40.842154),Manhattan,Washington Heights South,Boro Zone
246, POINT (-74.003806 40.7532728),Manhattan,West Chelsea/Hudson Yards,Yellow Zone
249, POINT (-74.0029703 40.7342533),Manhattan,West Village,Yellow Zone
261, POINT (-74.0130785 40.7091587),Manhattan,World Trade Center,Yellow Zone
262, POINT (-73.947122 40.775929),Manhattan,Yorkville East,Yellow Zone
263, POINT (-73.951248 40.778551),Manhattan,Yorkville West,Yellow Zone
